{
  "meta": {
    "pagination": { "count": 10530, "pages": 1053, "page": 80, "per_page": 10 }
  },
  "links": null,
  "data": [
    {
      "type": "reservations",
      "id": "5786",
      "attributes": {
        "cancel_date": null,
        "check_in_date": null,
        "creation_date": "2024-10-29T15:34:28.278681Z",
        "guest_email": null,
        "guest_name": null,
        "live_stream_url": null,
        "live_stream_window": 20,
        "reservation_type": "standard",
        "reserved_for_guest": false,
        "status": "pending",
        "used_geo_checkin": null,
        "waitlist_weight": null,
        "admin_waitlist_position": null
      },
      "relationships": {
        "booked_on_behalf_of_user": {
          "data": { "type": "users", "id": "34755" }
        },
        "broker": { "data": { "type": "users", "id": "34572" } },
        "class_session": { "data": { "type": "class_sessions", "id": "7111" } },
        "credit_transactions": {
          "data": [{ "type": "credit_transactions", "id": "8705" }]
        },
        "membership_transactions": { "data": [] },
        "spot": { "data": { "type": "spots", "id": "35885" } },
        "tags": { "data": [] },
        "user": { "data": { "type": "users", "id": "34755" } }
      }
    },
    {
      "type": "reservations",
      "id": "5785",
      "attributes": {
        "cancel_date": null,
        "check_in_date": null,
        "creation_date": "2024-10-29T15:34:27.794490Z",
        "guest_email": null,
        "guest_name": null,
        "live_stream_url": null,
        "live_stream_window": 20,
        "reservation_type": "standard",
        "reserved_for_guest": false,
        "status": "pending",
        "used_geo_checkin": null,
        "waitlist_weight": null,
        "admin_waitlist_position": null
      },
      "relationships": {
        "booked_on_behalf_of_user": {
          "data": { "type": "users", "id": "35043" }
        },
        "broker": { "data": { "type": "users", "id": "34572" } },
        "class_session": { "data": { "type": "class_sessions", "id": "7111" } },
        "credit_transactions": {
          "data": [{ "type": "credit_transactions", "id": "8703" }]
        },
        "membership_transactions": { "data": [] },
        "spot": { "data": { "type": "spots", "id": "35884" } },
        "tags": { "data": [] },
        "user": { "data": { "type": "users", "id": "35043" } }
      }
    },
    {
      "type": "reservations",
      "id": "5784",
      "attributes": {
        "cancel_date": null,
        "check_in_date": null,
        "creation_date": "2024-10-29T15:34:27.031542Z",
        "guest_email": null,
        "guest_name": null,
        "live_stream_url": null,
        "live_stream_window": 20,
        "reservation_type": "standard",
        "reserved_for_guest": false,
        "status": "pending",
        "used_geo_checkin": null,
        "waitlist_weight": null,
        "admin_waitlist_position": null
      },
      "relationships": {
        "booked_on_behalf_of_user": {
          "data": { "type": "users", "id": "35066" }
        },
        "broker": { "data": { "type": "users", "id": "34572" } },
        "class_session": { "data": { "type": "class_sessions", "id": "7111" } },
        "credit_transactions": {
          "data": [{ "type": "credit_transactions", "id": "8701" }]
        },
        "membership_transactions": { "data": [] },
        "spot": { "data": { "type": "spots", "id": "35883" } },
        "tags": { "data": [] },
        "user": { "data": { "type": "users", "id": "35066" } }
      }
    },
    {
      "type": "reservations",
      "id": "5783",
      "attributes": {
        "cancel_date": null,
        "check_in_date": null,
        "creation_date": "2024-10-29T15:34:26.545580Z",
        "guest_email": null,
        "guest_name": null,
        "live_stream_url": null,
        "live_stream_window": 20,
        "reservation_type": "standard",
        "reserved_for_guest": false,
        "status": "pending",
        "used_geo_checkin": null,
        "waitlist_weight": null,
        "admin_waitlist_position": null
      },
      "relationships": {
        "booked_on_behalf_of_user": {
          "data": { "type": "users", "id": "34950" }
        },
        "broker": { "data": { "type": "users", "id": "34572" } },
        "class_session": { "data": { "type": "class_sessions", "id": "7111" } },
        "credit_transactions": {
          "data": [{ "type": "credit_transactions", "id": "8699" }]
        },
        "membership_transactions": { "data": [] },
        "spot": { "data": { "type": "spots", "id": "35882" } },
        "tags": { "data": [] },
        "user": { "data": { "type": "users", "id": "34950" } }
      }
    },
    {
      "type": "reservations",
      "id": "5706",
      "attributes": {
        "cancel_date": null,
        "check_in_date": null,
        "creation_date": "2024-10-29T15:33:39.522292Z",
        "guest_email": null,
        "guest_name": null,
        "live_stream_url": null,
        "live_stream_window": 20,
        "reservation_type": "standard",
        "reserved_for_guest": false,
        "status": "pending",
        "used_geo_checkin": null,
        "waitlist_weight": null,
        "admin_waitlist_position": null
      },
      "relationships": {
        "booked_on_behalf_of_user": {
          "data": { "type": "users", "id": "34631" }
        },
        "broker": { "data": { "type": "users", "id": "34572" } },
        "class_session": { "data": { "type": "class_sessions", "id": "7090" } },
        "credit_transactions": {
          "data": [{ "type": "credit_transactions", "id": "8545" }]
        },
        "membership_transactions": { "data": [] },
        "spot": { "data": { "type": "spots", "id": "35633" } },
        "tags": { "data": [] },
        "user": { "data": { "type": "users", "id": "34631" } }
      }
    },
    {
      "type": "reservations",
      "id": "5705",
      "attributes": {
        "cancel_date": null,
        "check_in_date": null,
        "creation_date": "2024-10-29T15:33:38.833728Z",
        "guest_email": null,
        "guest_name": null,
        "live_stream_url": null,
        "live_stream_window": 20,
        "reservation_type": "standard",
        "reserved_for_guest": true,
        "status": "pending",
        "used_geo_checkin": null,
        "waitlist_weight": null,
        "admin_waitlist_position": null
      },
      "relationships": {
        "booked_on_behalf_of_user": {
          "data": { "type": "users", "id": "34726" }
        },
        "broker": { "data": { "type": "users", "id": "34572" } },
        "class_session": { "data": { "type": "class_sessions", "id": "7090" } },
        "credit_transactions": {
          "data": [{ "type": "credit_transactions", "id": "8543" }]
        },
        "membership_transactions": { "data": [] },
        "spot": { "data": { "type": "spots", "id": "35632" } },
        "tags": { "data": [] },
        "user": { "data": { "type": "users", "id": "34726" } }
      }
    },
    {
      "type": "reservations",
      "id": "5704",
      "attributes": {
        "cancel_date": null,
        "check_in_date": null,
        "creation_date": "2024-10-29T15:33:38.365719Z",
        "guest_email": null,
        "guest_name": null,
        "live_stream_url": null,
        "live_stream_window": 20,
        "reservation_type": "standard",
        "reserved_for_guest": false,
        "status": "pending",
        "used_geo_checkin": null,
        "waitlist_weight": null,
        "admin_waitlist_position": null
      },
      "relationships": {
        "booked_on_behalf_of_user": {
          "data": { "type": "users", "id": "34744" }
        },
        "broker": { "data": { "type": "users", "id": "34572" } },
        "class_session": { "data": { "type": "class_sessions", "id": "7090" } },
        "credit_transactions": {
          "data": [{ "type": "credit_transactions", "id": "8541" }]
        },
        "membership_transactions": { "data": [] },
        "spot": { "data": { "type": "spots", "id": "35631" } },
        "tags": { "data": [] },
        "user": { "data": { "type": "users", "id": "34744" } }
      }
    },
    {
      "type": "reservations",
      "id": "5703",
      "attributes": {
        "cancel_date": null,
        "check_in_date": null,
        "creation_date": "2024-10-29T15:33:37.927160Z",
        "guest_email": null,
        "guest_name": null,
        "live_stream_url": null,
        "live_stream_window": 20,
        "reservation_type": "standard",
        "reserved_for_guest": false,
        "status": "pending",
        "used_geo_checkin": null,
        "waitlist_weight": null,
        "admin_waitlist_position": null
      },
      "relationships": {
        "booked_on_behalf_of_user": {
          "data": { "type": "users", "id": "34726" }
        },
        "broker": { "data": { "type": "users", "id": "34572" } },
        "class_session": { "data": { "type": "class_sessions", "id": "7090" } },
        "credit_transactions": {
          "data": [{ "type": "credit_transactions", "id": "8539" }]
        },
        "membership_transactions": { "data": [] },
        "spot": { "data": { "type": "spots", "id": "35630" } },
        "tags": { "data": [] },
        "user": { "data": { "type": "users", "id": "34726" } }
      }
    },
    {
      "type": "reservations",
      "id": "5702",
      "attributes": {
        "cancel_date": null,
        "check_in_date": null,
        "creation_date": "2024-10-29T15:33:37.264787Z",
        "guest_email": null,
        "guest_name": null,
        "live_stream_url": null,
        "live_stream_window": 20,
        "reservation_type": "standard",
        "reserved_for_guest": false,
        "status": "pending",
        "used_geo_checkin": null,
        "waitlist_weight": null,
        "admin_waitlist_position": null
      },
      "relationships": {
        "booked_on_behalf_of_user": {
          "data": { "type": "users", "id": "34884" }
        },
        "broker": { "data": { "type": "users", "id": "34572" } },
        "class_session": { "data": { "type": "class_sessions", "id": "7090" } },
        "credit_transactions": {
          "data": [{ "type": "credit_transactions", "id": "8537" }]
        },
        "membership_transactions": { "data": [] },
        "spot": { "data": { "type": "spots", "id": "35629" } },
        "tags": { "data": [] },
        "user": { "data": { "type": "users", "id": "34884" } }
      }
    },
    {
      "type": "reservations",
      "id": "5701",
      "attributes": {
        "cancel_date": null,
        "check_in_date": null,
        "creation_date": "2024-10-29T15:33:36.610076Z",
        "guest_email": null,
        "guest_name": null,
        "live_stream_url": null,
        "live_stream_window": 20,
        "reservation_type": "standard",
        "reserved_for_guest": false,
        "status": "pending",
        "used_geo_checkin": null,
        "waitlist_weight": null,
        "admin_waitlist_position": null
      },
      "relationships": {
        "booked_on_behalf_of_user": {
          "data": { "type": "users", "id": "34606" }
        },
        "broker": { "data": { "type": "users", "id": "34572" } },
        "class_session": { "data": { "type": "class_sessions", "id": "7090" } },
        "credit_transactions": {
          "data": [{ "type": "credit_transactions", "id": "8535" }]
        },
        "membership_transactions": { "data": [] },
        "spot": { "data": { "type": "spots", "id": "35628" } },
        "tags": { "data": [] },
        "user": { "data": { "type": "users", "id": "34606" } }
      }
    }
  ],
  "included": []
}
